bkp/cores/xcom_link_tx/data/xcom_link_tx_saved.vcd
$date
	Fri May  2 14:50:48 2025
$end
$version
	GTKWave Analyzer v3.3.116 (w)1999-2023 BSI
$end
$timescale
	1ps
$end
$scope module testrunner $end
$scope module __ts $end
$scope module xcom_link_tx_ut $end
$scope module u_xcom_link_tx $end
$var wire 1 # i_rstn $end
$var reg 1 ) s_ready $end
$var wire 1 " i_clk $end
$var wire 4 % i_cfg_tick[3:0] $end
$var reg 2 + state_r[1:0] $end
$var reg 40 1 tx_buff[39:0] $end
$var reg 6 . s_tx_pkt_size[5:0] $end
$var reg 1 ' tick_dt $end
$var reg 1 & tick_clk $end
$var reg 1 ( tick_en $end
$var reg 4 / tick_cnt[3:0] $end
$var reg 6 3 tx_pkt_size_r[5:0] $end
$var reg 6 0 tx_bit_cnt_r[5:0] $end
$var reg 40 2 tx_data_r[39:0] $end
$var reg 1 - s_last $end
$var reg 1 5 o_clk $end
$var reg 1 6 o_data $end
$var reg 1 4 o_ready $end
$var wire 32 $ i_data[31:0] $end
$var wire 8 , i_header[7:0] $end
$var wire 1 * i_valid $end
$upscope $end
$upscope $end
$upscope $end
$upscope $end
$enddefinitions $end
#0
$dumpvars
x-
0*
0&
b0 %
1#
0)
x6
0'
x5
b0 ,
bx +
04
b0 $
1(
bx 2
b0 1
bx /
1"
b111 .
bx 3
bx 0
$end
#2000
0#
0"
#4000
1"
b0 0
1-
06
1)
14
05
b0 +
0(
b0 2
b0 3
b0 /
#6000
0"
#8000
1"
#10000
0"
1#
#12000
1"
#14000
0"
#16000
1"
#18000
0"
#20000
1"
#22000
0"
#24000
1"
#26000
0"
#28000
1"
#30000
0"
0#
#32000
1"
#34000
0"
1#
#36000
1"
#38000
0"
0#
#40000
1"
#42000
0"
1#
#44000
1"
#46000
0"
0#
#48000
1"
#50000
0"
1#
#52000
1"
#54000
0"
0#
#56000
1"
#58000
0"
1#
#60000
1"
#62000
0"
0#
#64000
1"
#66000
0"
1#
#68000
1"
#70000
0"
0#
#72000
1"
#74000
0"
1#
#76000
1"
#78000
0"
0#
#80000
1"
#82000
0"
1#
#84000
1"
#86000
0"
0#
#88000
1"
#90000
0"
1#
#92000
1"
#94000
0"
0#
#96000
1"
#98000
0"
1#
#100000
1"
#102000
0"
0#
#104000
1"
#106000
0"
1#
#108000
1"
#110000
0"
#112000
1"
#114000
0"
0#
#116000
1"
#118000
0"
#120000
1"
#122000
0"
1#
#124000
1"
#126000
0"
#128000
1"
#130000
0"
#132000
1"
#134000
0"
#136000
1"
#138000
0"
#140000
1"
#142000
0"
b101000110110101001101010101100 $
1*
b10 %
b101010 ,
b10101010101100000000000000000000000000 1
b1111 .
#144000
b1 /
1"
0-
b1 0
04
0)
b1111 3
b1 +
1(
b10101010101100000000000000000000000000 2
#146000
0"
0*
#148000
1"
1&
b10 /
#150000
0"
#152000
1"
b1 /
0&
15
1'
#154000
0"
#156000
1"
0'
b10 /
1&
b101010101011000000000000000000000000000 2
b10 0
b10 +
#158000
0"
#160000
1"
b1 +
05
0&
b1 /
1'
#162000
0"
#164000
1"
0'
b10 /
b1010101010110000000000000000000000000000 2
1&
b10 +
16
b11 0
#166000
0"
#168000
1"
b1 +
1'
0&
15
b1 /
#170000
0"
#172000
1"
b10 /
b100 0
1&
0'
b101010101100000000000000000000000000000 2
b10 +
06
#174000
0"
#176000
1"
05
1'
0&
b1 /
b1 +
#178000
0"
#180000
1"
b10 +
16
b1010101011000000000000000000000000000000 2
1&
0'
b101 0
b10 /
#182000
0"
#184000
1"
b1 /
1'
b1 +
0&
15
#186000
0"
#188000
1"
1&
b10 /
b10 +
0'
b101010110000000000000000000000000000000 2
06
b110 0
#190000
0"
#192000
1"
05
1'
b1 +
0&
b1 /
#194000
0"
#196000
1"
b10 /
b111 0
b1010101100000000000000000000000000000000 2
1&
b10 +
0'
16
#198000
0"
#200000
1"
b1 +
b1 /
0&
15
1'
#202000
0"
#204000
1"
0'
1&
06
b10 /
b10 +
b1000 0
b101011000000000000000000000000000000000 2
#206000
0"
#208000
1"
1'
b1 +
b1 /
0&
05
#210000
0"
#212000
1"
b1010110000000000000000000000000000000000 2
b1001 0
b10 /
b10 +
0'
16
1&
#214000
0"
#216000
1"
0&
1'
15
b1 +
b1 /
#218000
0"
#220000
1"
b10 /
b10 +
1&
0'
b101100000000000000000000000000000000000 2
b1010 0
06
#222000
0"
#224000
1"
b1 /
1'
0&
05
b1 +
#226000
0"
#228000
1"
b10 +
16
b1011000000000000000000000000000000000000 2
1&
0'
b10 /
b1011 0
#230000
0"
#232000
1"
1'
b1 +
0&
15
b1 /
#234000
0"
#236000
1"
b10 /
1&
b1100 0
b10 +
0'
b110000000000000000000000000000000000000 2
06
#238000
0"
#240000
1"
b1 /
1'
b1 +
0&
05
#242000
0"
#244000
1"
16
b1100000000000000000000000000000000000000 2
b10 +
0'
b10 /
b1101 0
1&
#246000
0"
#248000
1"
0&
b1 /
15
1'
b1 +
#250000
0"
#252000
1"
b10 +
0'
1&
b10 /
b1000000000000000000000000000000000000000 2
b1110 0
#254000
0"
#256000
1"
b1 /
b1 +
0&
1'
05
#258000
0"
#260000
1"
0'
b1111 0
1&
b10 +
06
b10 /
1-
b0 2
#262000
0"
#264000
1"
b1 /
15
0&
1'
b1 +
#266000
0"
#268000
1"
b11 +
0'
1&
b10 /
b10000 0
0-
#270000
0"
#272000
1"
b1 /
14
0&
1'
b0 +
05
1)
0(
#274000
0"
#276000
1"
0'
b10001 0
#278000
0"
#280000
1"
#282000
0"
#284000
1"
#286000
0"
#288000
1"
#290000
0"
#292000
1"
#294000
0"
#296000
1"
#298000
0"
#300000
1"
#302000
0"
#304000
1"
#306000
0"
#308000
1"
#310000
0"
#312000
1"
#314000
0"
#316000
1"
#318000
0"
#320000
1"
#322000
0"
#324000
1"
#326000
0"
#328000
1"
#330000
0"
#332000
1"
#334000
0"
#336000
1"
#338000
0"
#340000
1"
#342000
0"
#344000
1"
#346000
0"
b0 $
b0 %
b111 .
b0 1
b0 ,
#348000
1"
b0 /
#350000
0"
0#
#352000
1-
b0 0
1"
b0 3
#354000
0"
#356000
1"
#358000
0"
1#
#360000
1"
#362000
0"
#364000
1"
#366000
0"
#368000
1"
#370000
0"
#372000
1"
#374000
0"
#376000
1"
#378000
0"
b10 %
1*
b10001010101111100001000011111111 $
b1001010 ,
b100101000010000111111110000000000000000 1
b10111 .
#380000
0-
b1 +
b100101000010000111111110000000000000000 2
1"
b1 /
1(
04
b10111 3
0)
b1 0
#382000
0"
0*
#384000
1"
b10 /
1&
#386000
0"
#388000
1"
0&
b1 /
1'
15
#390000
0"
#392000
1"
b1001010000100001111111100000000000000000 2
b10 +
1&
b10 0
16
0'
b10 /
#394000
0"
#396000
1"
b1 /
05
0&
b1 +
1'
#398000
0"
#400000
1"
0'
1&
b11 0
b10 /
b10100001000011111111000000000000000000 2
b10 +
06
#402000
0"
#404000
1"
b1 /
1'
0&
15
b1 +
#406000
0"
#408000
1"
b10 +
1&
0'
b10 /
b100 0
b101000010000111111110000000000000000000 2
#410000
0"
#412000
1"
b1 /
1'
0&
b1 +
05
#414000
0"
#416000
1"
b1010000100001111111100000000000000000000 2
16
1&
0'
b10 /
b10 +
b101 0
#418000
0"
#420000
1"
1'
15
0&
b1 +
b1 /
#422000
0"
#424000
1"
b10 /
b110 0
0'
06
b100001000011111111000000000000000000000 2
b10 +
1&
#426000
0"
#428000
1"
0&
05
1'
b1 /
b1 +
#430000
0"
#432000
1"
b10 +
0'
16
1&
b111 0
b10 /
b1000010000111111110000000000000000000000 2
#434000
0"
#436000
1"
0&
b1 +
1'
15
b1 /
#438000
0"
#440000
1"
b10 /
0'
b100001111111100000000000000000000000 2
b10 +
1&
06
b1000 0
#442000
0"
#444000
1"
0&
b1 /
b1 +
1'
05
#446000
0"
#448000
1"
b10 +
b1001 0
b10 /
1&
b1000011111111000000000000000000000000 2
0'
#450000
0"
#452000
1"
1'
0&
15
b1 /
b1 +
#454000
0"
#456000
1"
b10 +
b10 /
0'
1&
b1010 0
b10000111111110000000000000000000000000 2
#458000
0"
#460000
1"
0&
b1 +
1'
b1 /
05
#462000
0"
#464000
1"
b10 /
b100001111111100000000000000000000000000 2
0'
b10 +
1&
b1011 0
#466000
0"
#468000
1"
b1 +
15
1'
b1 /
0&
#470000
0"
#472000
1"
1&
0'
b1100 0
b10 +
b1000011111111000000000000000000000000000 2
b10 /
16
#474000
0"
#476000
1"
b1 +
0&
1'
05
b1 /
#478000
0"
#480000
1"
b10 /
0'
06
1&
b10 +
b1101 0
b111111110000000000000000000000000000 2
#482000
0"
#484000
1"
b1 +
b1 /
0&
1'
15
#486000
0"
#488000
1"
1&
b1111111100000000000000000000000000000 2
b10 /
b10 +
0'
b1110 0
#490000
0"
#492000
1"
b1 /
05
0&
1'
b1 +
#494000
0"
#496000
1"
b10 +
b1111 0
b10 /
b11111111000000000000000000000000000000 2
0'
1&
#498000
0"
#500000
1"
0&
b1 /
15
b1 +
1'
#502000
0"
#504000
1"
0'
1&
b10 /
b10000 0
b10 +
b111111110000000000000000000000000000000 2
#506000
0"
#508000
1"
b1 /
05
0&
1'
b1 +
#510000
0"
#512000
1"
b10 +
1&
b1111111100000000000000000000000000000000 2
b10 /
16
0'
b10001 0
#514000
0"
#516000
1"
b1 /
b1 +
0&
15
1'
#518000
0"
#520000
1"
0'
1&
b10010 0
b10 +
b10 /
b1111111000000000000000000000000000000000 2
#522000
0"
#524000
1"
b1 /
1'
b1 +
0&
05
#526000
0"
#528000
1"
b10 +
b1111110000000000000000000000000000000000 2
0'
b10 /
b10011 0
1&
#530000
0"
#532000
1"
0&
b1 /
15
1'
b1 +
#534000
0"
#536000
1"
b10 +
0'
1&
b10 /
b1111100000000000000000000000000000000000 2
b10100 0
#538000
0"
#540000
1"
b1 /
b1 +
0&
1'
05
#542000
0"
#544000
1"
0'
b10101 0
1&
b10 +
b10 /
b1111000000000000000000000000000000000000 2
#546000
0"
#548000
1"
b1 +
15
0&
1'
b1 /
#550000
0"
#552000
1"
b10 /
1&
b1110000000000000000000000000000000000000 2
b10 +
b10110 0
0'
#554000
0"
#556000
1"
1'
b1 +
b1 /
0&
05
#558000
0"
#560000
1"
1&
0'
1-
b10 /
b10 +
b1100000000000000000000000000000000000000 2
b10111 0
#562000
0"
#564000
1"
b1 +
0&
15
b1 /
1'
#566000
0"
#568000
1"
0'
b10 /
b11 +
b11000 0
1&
0-
b1000000000000000000000000000000000000000 2
#570000
0"
#572000
1"
0&
b1 /
1'
b0 +
05
0(
1)
14
#574000
0"
#576000
1"
b0 2
0'
b11001 0
06
